module newsmeter

go 1.17

require (
	github.com/golang/protobuf v1.5.2 // indirect
	github.com/gorilla/mux v1.8.0 // indirect
	github.com/joho/godotenv v1.4.0 // indirect
	golang.org/x/net v0.0.0-20220127200216-cd36cc0744dd // indirect
	golang.org/x/sys v0.0.0-20220209214540-3681064d5158 // indirect
	golang.org/x/text v0.3.7 // indirect
	google.golang.org/genproto v0.0.0-20220218161850-94dd64e39d7c // indirect
	google.golang.org/grpc v1.44.0 // indirect
	google.golang.org/protobuf v1.27.1 // indirect
)
